year,co2
1850,-8.164855234
1851,-8.164150085
1852,-8.164798043
1853,-8.16564165
1854,-8.165420815
1855,-8.165207907
1856,-8.164824581
1857,-8.164526229
1858,-8.163872582
1859,-8.163471935
1860,-8.164636682
1861,-8.166853835
1862,-8.165690797
1863,-8.163628474
1864,-8.16327162
1865,-8.163348519
1866,-8.164642024
1867,-8.16606907
1868,-8.165985662
1869,-8.164742472
1870,-8.163862117
1871,-8.165051156
1872,-8.169085799
1873,-8.172339534
1874,-8.17214526
1875,-8.170990344
1876,-8.169369626
1877,-8.166772686
1878,-8.164736954
1879,-8.163910088
1880,-8.164632218
1881,-8.164495411
1882,-8.162264717
1883,-8.160560793
1884,-8.159253398
1885,-8.157351656
1886,-8.155814254
1887,-8.155243493
1888,-8.156162254
1889,-8.156149151
1890,-8.15586825
1891,-8.156492631
1892,-8.156722764
1893,-8.156851189
1894,-8.157211237
1895,-8.157940169
1896,-8.158131842
1897,-8.15781663
1898,-8.15746596
1899,-8.157156993
1900,-8.156727611
1901,-8.156828558
1902,-8.156836753
1903,-8.156736119
1904,-8.156568802
1905,-8.155979354
1906,-8.155843272
1907,-8.155779697
1908,-8.154163253
1909,-8.151928014
1910,-8.150883135
1911,-8.149212079
1912,-8.146788651
1913,-8.14493305
1914,-8.142417695
1915,-8.139497749
1916,-8.137940308
1917,-8.13689421
1918,-8.135363615
1919,-8.132565448
1920,-8.130669749
1921,-8.128699588
1922,-8.126220019
1923,-8.126550224
1924,-8.126317865
1925,-8.124304604
1926,-8.122414884
1927,-8.121305164
1928,-8.120108064
1929,-8.118533622
1930,-8.116345326
1931,-8.112896432
1932,-8.109345457
1933,-8.106905531
1934,-8.105630147
1935,-8.104276482
1936,-8.103319006
1937,-8.102363204
1938,-8.09992597
1939,-8.098134069
1940,-8.098151234
1941,-8.098986273
1942,-8.099918953
1943,-8.100373986
1944,-8.100895765
1945,-8.101006235
1946,-8.101763264
1947,-8.1035681
1948,-8.105045992
1949,-8.105184208
1950,-8.105347913
1951,-8.108809247
1952,-8.112113124
1953,-8.112515793
1954,-8.112495578
1955,-8.112361817
1956,-8.11212833
1957,-8.111667618
1958,-8.11030949
1959,-8.107183691
1960,-8.103294579
1961,-8.102711918
1962,-8.103023545
1963,-8.101402443
1964,-8.099769177
1965,-8.09710279
1966,-8.093351669
1967,-8.089985509
1968,-8.086035191
1969,-8.080235812
1970,-8.073124452
1971,-8.065841241
1972,-8.059158562
1973,-8.053096191
1974,-8.048440657
1975,-8.044438257
1976,-8.040365183
1977,-8.035156068
1978,-8.027969457
1979,-8.020242024
1980,-8.013801692
1981,-8.009690222
1982,-8.007266932
1983,-8.003638335
1984,-7.997967378
1985,-7.99187871
1986,-7.985910125
1987,-7.979505418
1988,-7.971721185
1989,-7.964086226
1990,-7.957833036
1991,-7.954185819
1992,-7.953165351
1993,-7.951099147
1994,-7.946956915
1995,-7.940752089
1996,-7.934243763
1997,-7.929878638
1998,-7.925328105
1999,-7.920329762
2000,-7.917348627
2001,-7.913824476
2002,-7.907486154
2003,-7.900603565
2004,-7.894508068
2005,-7.888051447
2006,-7.880205177
2007,-7.871775138
2008,-7.862940671
2009,-7.853408784
2010,-7.844099775
2011,-7.835935739
2012,-7.827966059
2013,-7.819571636
2014,-7.810942365
2015,-7.80203636
2016,-7.792879885
2017,-7.783506336
2018,-7.773936979
2019,-7.764076333
2020,-7.753841237
2021,-7.743216282
2022,-7.732476546
2023,-7.72177667
2024,-7.710958739
2025,-7.70001637
2026,-7.688953606
2027,-7.677791042
2028,-7.666555863
2029,-7.65526243
2030,-7.643624487
2031,-7.631355213
2032,-7.618821755
2033,-7.606245287
2034,-7.593474674
2035,-7.58050256
2036,-7.56733804
2037,-7.553994618
2038,-7.540502089
2039,-7.526896335
2040,-7.513268393
2041,-7.499698591
2042,-7.486065502
2043,-7.472304077
2044,-7.458448787
2045,-7.444457157
2046,-7.430304001
2047,-7.415980437
2048,-7.401487989
2049,-7.386846104
2050,-7.372285674
2051,-7.358024848
2052,-7.343856976
2053,-7.32961918
2054,-7.315382989
2055,-7.301148047
2056,-7.286868956
2057,-7.272519568
2058,-7.258087112
2059,-7.243565289
2060,-7.229026055
2061,-7.214549334
2062,-7.200152611
2063,-7.185853292
2064,-7.171656621
2065,-7.157579117
2066,-7.143618243
2067,-7.129734034
2068,-7.115889252
2069,-7.102056474
2070,-7.088266252
2071,-7.074567907
2072,-7.060953068
2073,-7.047414345
2074,-7.033960613
2075,-7.020588244
2076,-7.007319735
2077,-6.99414071
2078,-6.98104635
2079,-6.968004081
2080,-6.954791416
2081,-6.941247225
2082,-6.927573999
2083,-6.913961961
2084,-6.90040615
2085,-6.886905651
2086,-6.873455597
2087,-6.860105479
2088,-6.846841946
2089,-6.833612465
2090,-6.820594305
2091,-6.80792198
2092,-6.795418693
2093,-6.782987449
2094,-6.770672836
2095,-6.758479864
2096,-6.746409262
2097,-6.734460003
2098,-6.722643369
2099,-6.710969584
2100,-6.699566759
